{
  "listaImpressoes": [
    {
      "impressao": [
        {
          "larguraBobina": "302",
          "mEsquerda": "6.00",
          "mDireita": "6.00",
          "mFundo": "6.00",
          "mTopo": "6.00",
          "nomeImpressora": "MP-4200 TH",
          "nomeComputador": "RenanLucilio",
          "generica": "N",
          "reciboRetirada": {
            "estabelecimento": {
              "nomeFantasia": "CENTRAL SICLOP",
              "endereco": {
                "taxaEntrega": "4,00",
                "logradouro": "RUA MURA",
                "numero": "43434",
                "complemento": "",
                "pontoReferencia": "",
                "bairro": "VILA MARTE",
                "cidade": "SÃO PAULO",
                "uf": "SP",
                "cep": "04250060",
                "complementoRua": ""
              },
              "contatos": {
                "0": {
                  "tipo": "telefone",
                  "contato": "(11)2841-6556",
                  "whatsapp": "N"
                }
              }
            },
            "responsavel": "SICLOP",
            "destinatario": "Paulo",
            "motivo": "Eu, Paulo recebi de(a) CENTRAL SICLOP a importancia de R$ 10,00(dez reais) referente a Pagamento do motoboy.",
            "valor": "10,00",
            "data": "23-08-2018 10:04:38"
          }
        }
      ]
    }
  ]
}